{
  "project_info": {
    "project_number": "313568368138",
    "firebase_url": "https://ads-viewer-b245d.firebaseio.com",
    "project_id": "ads-viewer-b245d",
    "storage_bucket": "ads-viewer-b245d.appspot.com"
  },
  "client": [
    {
      "client_info": {
        "mobilesdk_app_id": "1:313568368138:android:d40f1939056452faa6b1f3",
        "android_client_info": {
          "package_name": "com.toubya.adsviewer"
        }
      },
      "oauth_client": [
        {
          "client_id": "313568368138-4a7o317o478q2s987d1kr2t97vhuulg6.apps.googleusercontent.com",
          "client_type": 3
        }
      ],
      "api_key": [
        {
          "current_key": "AIzaSyDA_Hn2k8lVQdHgjmhkvkm0melMNeARC8k"
        }
      ],
      "services": {
        "appinvite_service": {
          "other_platform_oauth_client": [
            {
              "client_id": "313568368138-4a7o317o478q2s987d1kr2t97vhuulg6.apps.googleusercontent.com",
              "client_type": 3
            }
          ]
        }
      }
    }
  ],
  "configuration_version": "1"
}